%!PS-Adobe-3.0 EPSF-3.0
%%Creator: cairo 1.15.12 (http://cairographics.org)
%%CreationDate: Sun Jan 29 16:06:39 2023
%%Pages: 1
%%DocumentData: Clean7Bit
%%LanguageLevel: 2
%%BoundingBox: 0 0 900 836
%%EndComments
%%BeginProlog
50 dict begin
/q { gsave } bind def
/Q { grestore } bind def
/cm { 6 array astore concat } bind def
/w { setlinewidth } bind def
/J { setlinecap } bind def
/j { setlinejoin } bind def
/M { setmiterlimit } bind def
/d { setdash } bind def
/m { moveto } bind def
/l { lineto } bind def
/c { curveto } bind def
/h { closepath } bind def
/re { exch dup neg 3 1 roll 5 3 roll moveto 0 rlineto
      0 exch rlineto 0 rlineto closepath } bind def
/S { stroke } bind def
/f { fill } bind def
/f* { eofill } bind def
/n { newpath } bind def
/W { clip } bind def
/W* { eoclip } bind def
/BT { } bind def
/ET { } bind def
/BDC { mark 3 1 roll /BDC pdfmark } bind def
/EMC { mark /EMC pdfmark } bind def
/cairo_store_point { /cairo_point_y exch def /cairo_point_x exch def } def
/Tj { show currentpoint cairo_store_point } bind def
/TJ {
  {
    dup
    type /stringtype eq
    { show } { -0.001 mul 0 cairo_font_matrix dtransform rmoveto } ifelse
  } forall
  currentpoint cairo_store_point
} bind def
/cairo_selectfont { cairo_font_matrix aload pop pop pop 0 0 6 array astore
    cairo_font exch selectfont cairo_point_x cairo_point_y moveto } bind def
/Tf { pop /cairo_font exch def /cairo_font_matrix where
      { pop cairo_selectfont } if } bind def
/Td { matrix translate cairo_font_matrix matrix concatmatrix dup
      /cairo_font_matrix exch def dup 4 get exch 5 get cairo_store_point
      /cairo_font where { pop cairo_selectfont } if } bind def
/Tm { 2 copy 8 2 roll 6 array astore /cairo_font_matrix exch def
      cairo_store_point /cairo_font where { pop cairo_selectfont } if } bind def
/g { setgray } bind def
/rg { setrgbcolor } bind def
/d1 { setcachedevice } bind def
/cairo_data_source {
  CairoDataIndex CairoData length lt
    { CairoData CairoDataIndex get /CairoDataIndex CairoDataIndex 1 add def }
    { () } ifelse
} def
/cairo_flush_ascii85_file { cairo_ascii85_file status { cairo_ascii85_file flushfile } if } def
/cairo_image { image cairo_flush_ascii85_file } def
/cairo_imagemask { imagemask cairo_flush_ascii85_file } def
%%EndProlog
%%BeginSetup
%%EndSetup
%%Page: 1 1
%%BeginPageSetup
%%PageBoundingBox: 0 0 900 836
%%EndPageSetup
q 0 0 900 836 rectclip
1 0 0 -1 0 836 cm q
0 g
180.699 1.281 m 176.301 2.883 169 7.781 168.301 9.582 c 168 10.184 173.199
 19.281 179.801 29.582 c 186.398 39.883 199 59.883 207.801 73.883 c 216.602
 87.883 226.398 103.383 229.5 108.281 c 232.602 113.184 236.699 120.781 
238.699 125.281 c 240.602 129.684 242.801 134.383 243.602 135.582 c 244.398
 136.883 245.398 139.582 245.801 141.582 c 246.602 145.383 l 252.102 145.383
 l 255 145.281 261.199 144.684 265.801 143.883 c 274.199 142.383 l 273.602
 139.383 l 272.301 133.184 263.602 116.383 259 111.281 c 256.5 108.383 253.699
 104.781 252.898 103.184 c 252.102 101.582 247.5 93.984 242.699 86.281 c
 220.301 51.184 204.398 25.484 198.801 15.582 c 195.5 9.684 192.301 4.883
 191.801 4.883 c 191.199 4.883 191 4.281 191.301 3.484 c 192.699 -0.016 
187.398 -1.117 180.699 1.281 c h
180.699 1.281 m f
366 134.781 m 364.699 137.281 367.5 140.684 371 140.984 c 376.5 141.383
 377.301 141.082 376.602 138.082 c 376.199 136.582 375.199 134.781 374.301
 134.082 c 371.801 132.184 367.199 132.582 366 134.781 c h
366 134.781 m f
382.301 142.582 m 379.602 143.582 381 145.883 384.301 145.883 c 388.301
 145.883 389.398 145.082 387.898 143.184 c 386.699 141.883 384.602 141.582
 382.301 142.582 c h
382.301 142.582 m f
351 145.883 m 350.199 146.383 348.5 146.883 347.301 146.883 c 344.398 146.883
 344.398 148.582 347.199 151.582 c 348.801 153.281 349.102 154.184 348.301
 154.984 c 346.602 156.684 327.398 156.781 322.102 155.082 c 317.102 153.484
 314.602 153.984 310.699 157.082 c 308 159.383 l 310 163.082 l 312.699 168.082
 312.5 169.684 309.398 170.984 c 306.898 171.883 306.801 171.984 308.5 173.281
 c 310.102 174.484 311.199 174.184 316.398 171.781 c 319.801 170.184 323
 168.883 323.699 168.883 c 325.102 168.883 329.898 174.484 331 177.383 c
 331.602 178.883 333.301 179.883 336.699 180.582 c 342.801 182.082 347.5
 180.082 350.199 174.781 c 352.5 170.281 358.699 166.684 364.301 166.684
 c 367.301 166.684 369.301 165.984 371.301 164.383 c 372.801 163.082 374
 161.684 374 161.383 c 374 161.082 372.199 160.883 369.898 160.883 c 366.301
 160.883 365.699 160.582 364.699 157.883 c 364 155.984 363 155.082 362.199
 155.383 c 361.398 155.684 361 155.383 361.199 154.684 c 361.398 154.082
 362.602 153.484 363.801 153.383 c 366.801 153.184 367.602 152.082 366.301
 150.082 c 365.5 148.781 364.102 148.484 360.699 148.684 c 356.898 148.883
 355.801 148.582 354.801 146.883 c 353.301 144.582 353.102 144.582 351 145.883
 c h
351 145.883 m f
289.699 162.582 m 289.301 162.883 289 164.582 289 166.281 c 288.898 171.184
 286.5 179.082 284.699 180.383 c 282.301 182.082 282.602 183.082 286 186.383
 c 288.801 189.082 289.301 189.184 292.301 188.082 c 294 187.484 296.5 187.184
 297.699 187.484 c 300.602 188.281 310 182.281 310 179.684 c 310 178.184
 309.699 177.984 308.102 178.883 c 305.102 180.484 303.199 180.082 302.398
 177.684 c 302.102 176.484 300.5 173.781 298.898 171.582 c 297.301 169.383
 296 166.984 296 166.281 c 296 165.582 295 164.281 293.801 163.484 c 291.301
 161.684 290.602 161.582 289.699 162.582 c h
289.699 162.582 m f
354.5 177.883 m 354.199 178.383 354.602 178.883 355.398 178.883 c 356.301
 178.883 357 178.383 357 177.883 c 357 177.281 356.602 176.883 356.102 176.883
 c 355.5 176.883 354.801 177.281 354.5 177.883 c h
354.5 177.883 m f
374 181.883 m 374 182.383 374.602 182.883 375.398 182.883 c 376.199 182.883
 377.199 182.383 377.5 181.883 c 377.801 181.281 377.199 180.883 376.102
 180.883 c 374.898 180.883 374 181.281 374 181.883 c h
374 181.883 m f
331.102 185.281 m 330 186.582 330 187.281 330.801 188.082 c 332.301 189.582
 333.199 188.582 332.801 185.781 c 332.5 183.684 332.398 183.684 331.102
 185.281 c h
331.102 185.281 m f
495.602 194.082 m 480 212.484 476.102 216.383 467.602 222.781 c 445.102
 239.684 422.301 250.582 392.602 258.582 c 385.398 260.484 375.898 263.582
 371.5 265.383 c 367.102 267.184 359.5 269.484 354.5 270.383 c 349.602 271.383
 345.301 272.383 345 272.582 c 344.199 273.281 359.301 271.984 370.5 270.281
 c 385.801 267.984 395.102 265.684 414.5 259.383 c 428.398 254.883 427.398
 255.184 428.301 254.984 c 428.699 254.984 430.602 254.281 432.5 253.484
 c 435.898 251.984 436 252.082 435 253.883 c 434.398 254.984 434.301 255.883
 434.801 255.883 c 438.5 255.883 461.5 242.383 469.5 235.383 c 479.102 227.184
 480.898 225.484 480.398 224.684 c 480.102 224.281 480.199 223.883 480.699
 223.883 c 481.102 223.883 483.301 221.184 485.5 217.883 c 487.699 214.582
 489.801 211.883 490.199 211.883 c 490.699 211.883 491 210.781 491 209.383
 c 491 207.984 492.602 204.184 494.699 201.082 c 498.301 195.484 501.398
 188.883 500.602 188.883 c 500.301 188.883 498.102 191.281 495.602 194.082
 c h
495.602 194.082 m f
316.199 191.582 m 317 195.582 331 199.383 331.801 195.781 c 332 194.484
 331 194.082 327 193.582 c 324.199 193.281 321 192.281 319.801 191.383 c
 316.898 189.383 315.801 189.484 316.199 191.582 c h
316.199 191.582 m f
483.5 233.984 m 480.699 236.984 469.898 245.184 461.602 250.781 c 436.602
 267.684 401.602 280.184 364.699 285.582 c 347.5 288.082 290.602 287.984
 288.801 285.383 c 288.301 284.684 287.398 284.781 286.199 285.582 c 284.699
 286.484 282.801 286.484 277.898 285.383 c 274.398 284.684 270 284.184 268.301
 284.383 c 266.5 284.582 265 284.383 265 283.883 c 265 283.484 263.898 283.383
 262.5 283.684 c 261.199 283.883 259.199 283.781 258.301 283.281 c 257.301
 282.883 256.102 282.484 255.699 282.484 c 255.301 282.383 254.602 281.883
 254.199 281.184 c 253 279.184 247.801 277.684 246.602 278.883 c 245.801
 279.684 246 279.781 247.398 279.281 c 248.801 278.781 249.102 278.883 248.602
 279.781 c 247.398 281.582 251.102 284.281 262 289.582 c 272.102 294.582
 274.699 297.184 272.5 300.281 c 271.801 301.184 270.102 301.883 268.602
 301.883 c 267.199 301.883 266 302.281 266 302.883 c 266 303.383 265.102
 303.883 264 303.883 c 263 303.883 261.699 304.582 261.199 305.582 c 260.301
 307.082 260 306.984 257.5 305.082 c 253.898 302.184 252.5 302.281 252.199
 305.484 c 252 307.582 253.199 309.383 257.199 313.281 c 260.102 316.082
 262.801 318.383 263.199 318.383 c 265.199 318.383 264.898 319.984 262.801
 320.984 c 260.898 321.781 260.398 322.684 260.801 324.484 c 261 325.781
 261.602 326.883 262 326.883 c 262.398 326.883 262.699 327.684 262.602 328.582
 c 262.602 329.582 263 330.281 263.602 330.184 c 264.301 330.082 265 331.281
 265.301 332.883 c 265.699 334.781 267 336.383 269 337.383 c 270.699 338.281
 272 339.484 271.898 340.184 c 271.801 340.883 272.102 342.281 272.5 343.281
 c 273.102 344.582 272.898 345.383 272.199 345.684 c 269.898 346.383 271
 347.684 274.801 348.883 c 276.801 349.484 279.602 350.582 280.898 351.184
 c 283 352.184 283.5 351.984 285.602 349.383 c 287.699 346.684 288.5 346.383
 293.602 346.484 c 298.398 346.484 299.602 346.883 301.102 348.984 c 302.199
 350.281 303.5 351.984 304.102 352.684 c 304.699 353.383 305 354.883 304.699
 355.984 c 303.398 360.984 321.801 364.281 350 364.281 c 370.699 364.184
 378.301 363.383 389.5 359.883 c 392.801 358.883 398 357.582 401 356.883
 c 408.301 355.281 417 352.484 420.801 350.484 c 423.898 348.883 424.398
 347.883 426.602 338.383 c 428.398 330.684 435.801 315.684 442.398 306.383
 c 454.102 289.984 463 281.383 485.5 265.082 c 488 263.281 489.801 261.383
 489.5 260.781 c 489.102 260.281 489.301 259.883 489.801 259.883 c 491.398
 259.883 493.398 246.484 492.199 244.281 c 491.602 243.281 491 242.781 491
 243.383 c 491 243.883 489.898 244.484 488.5 244.484 c 486.5 244.684 486
 244.184 485.898 241.984 c 485.801 240.582 485.801 239.082 485.898 238.684
 c 485.898 238.281 485 238.184 483.699 238.383 c 481.699 238.781 481.602
 238.684 483.301 237.484 c 484.199 236.781 485 235.383 485 234.484 c 485
 233.484 485.5 233.082 486.199 233.484 c 486.898 233.883 487 233.781 486.602
 233.082 c 485.699 231.582 485.898 231.484 483.5 233.984 c h
267.398 323.484 m 267.699 324.383 267.699 325.484 267.398 326.082 c 267
 326.684 267.398 327.484 268.102 327.984 c 269.102 328.582 269.102 328.883
 268.301 328.883 c 267.199 328.883 264 323.984 264 322.383 c 264 321.184
 266.801 321.984 267.398 323.484 c h
272.699 325.781 m 273.699 327.281 273.602 327.781 272.5 328.281 c 271.199
 328.684 269 326.281 269 324.484 c 269 323.082 271.602 324.082 272.699 325.781
 c h
276.199 345.383 m 276 346.781 275.398 347.582 274.898 347.383 c 273.699
 346.582 274.199 342.883 275.602 342.883 c 276.301 342.883 276.5 343.883
 276.199 345.383 c h
276.199 345.383 m f
397 242.883 m 395.102 243.281 394 243.684 394.5 243.781 c 395.102 243.883
 394.602 244.383 393.5 244.883 c 391.699 245.684 391.699 245.781 393.301
 245.781 c 395.301 245.883 402 243.281 402 242.484 c 402 241.781 402 241.781
 397 242.883 c h
397 242.883 m f
573.5 252.883 m 571.898 253.281 569.301 253.984 567.801 254.281 c 566.301
 254.582 564.5 255.582 563.699 256.281 c 562.898 257.082 560.602 258.883
 558.5 260.281 c 554.699 262.883 l 557.801 262.883 l 559.5 262.883 561.102
 262.484 561.398 261.984 c 561.699 261.484 564.398 260.582 567.199 259.984
 c 579.801 257.184 585 255.582 586.602 253.781 c 588.301 251.984 588.199
 251.883 582.398 251.984 c 579.199 251.984 575.199 252.383 573.5 252.883
 c h
573.5 252.883 m f
265 263.484 m 265 264.684 272.199 267.082 280.602 268.781 c 300.102 272.582
 307.398 273.184 317.801 271.984 c 333.699 269.984 341.699 267.281 331.301
 267.484 c 321.5 267.582 296.199 266.082 288.801 264.984 c 281.5 263.781
 265 262.781 265 263.484 c h
265 263.484 m f
497 274.184 m 491.301 277.582 480.898 285.883 474.898 291.781 c 467.301
 299.281 461.301 307.781 456.301 317.984 c 449.301 332.184 450.102 333.582
 458.102 321.383 c 462.102 315.281 465.301 309.883 465.301 309.184 c 465.301
 308.484 465.699 308.184 466.102 308.383 c 466.5 308.684 467.102 308.184
 467.398 307.281 c 467.699 306.484 467.602 306.082 467 306.383 c 464.5 307.984
 470.898 299.082 477.301 292.281 c 483.801 285.383 490 280.883 493.199 280.883
 c 494 280.883 496.301 278.883 498.301 276.383 c 502.5 271.383 502.199 270.984
 497 274.184 c h
497 274.184 m f
271.5 273.684 m 273.398 275.383 282.5 277.984 293.5 279.984 c 315 283.781
 351 283.484 370 279.383 c 376.5 277.984 l 369.5 278.484 l 344.801 280.383
 333.801 280.684 319.5 279.883 c 303.699 278.984 279.301 275.781 273.5 273.883
 c 271.898 273.281 271 273.184 271.5 273.684 c h
271.5 273.684 m f
505.5 277.484 m 502.801 278.883 499.801 280.582 499 281.281 c 498.199 281.984
 495.5 283.684 493 285.184 c 483.699 290.484 466 310.383 461.102 320.883
 c 459.898 323.383 l 461.699 320.883 l 470 309.281 475.801 302.484 481.602
 297.281 c 490.301 289.684 499.199 282.984 505.199 279.484 c 507.898 277.984
 510.301 276.281 510.602 275.781 c 511.301 274.582 511.199 274.582 505.5
 277.484 c h
505.5 277.484 m f
572.5 283.781 m 571.398 284.082 569.102 285.184 567.398 286.082 c 565.699
 287.082 564 287.582 563.801 287.383 c 563.5 287.082 561.199 286.684 558.5
 286.383 c 554.602 285.984 553.898 286.184 554.898 287.184 c 557.5 289.781
 573.301 288.684 575.199 285.684 c 576.898 282.984 576.199 282.484 572.5
 283.781 c h
572.5 283.781 m f
618 286.883 m 616.801 287.684 616.801 287.883 618.5 287.781 c 619.602 287.781
 621.398 287.383 622.5 286.883 c 624.301 286.082 624.301 285.984 622 285.984
 c 620.602 285.984 618.801 286.383 618 286.883 c h
618 286.883 m f
634.199 286.984 m 634.398 287.684 635.199 288.484 635.898 288.684 c 636.699
 288.984 637.102 288.582 636.801 287.781 c 636.602 287.082 635.801 286.281
 635.102 286.082 c 634.301 285.781 633.898 286.184 634.199 286.984 c h
634.199 286.984 m f
804.199 288.484 m 803 289.281 801.199 291.484 800.301 293.184 c 798.199
 297.281 775.898 327.281 761.102 345.883 c 754.699 353.883 747.801 362.883
 745.602 365.883 c 737.199 377.883 732.102 381.984 727.199 381.082 c 725.199
 380.684 725 380.184 725.5 377.984 c 726.898 372.383 736.199 365.184 744.199
 363.484 c 746.199 362.984 746.699 362.484 746.301 360.883 c 746 359.781
 746.301 358.883 746.898 358.883 c 747.699 358.883 747.699 358.484 746.801
 357.484 c 745.898 356.484 745.301 356.383 744.801 357.281 c 744.301 357.984
 744 357.781 744 356.582 c 744 355.684 743.301 354.883 742.5 354.883 c 741.699
 354.883 739.5 353.984 737.699 352.984 c 734.5 351.184 733.898 351.184 727.398
 352.582 c 723.602 353.383 719.801 354.484 718.898 354.883 c 716 356.383
 705.602 357.281 706.398 355.984 c 706.801 355.383 706.5 354.883 705.602
 354.883 c 704.699 354.883 704 354.484 704 354.082 c 704 352.684 693.699
 350.383 693.199 351.781 c 693 352.383 692.398 352.684 691.898 352.281 c
 691.398 351.984 690.398 352.082 689.801 352.582 c 689.102 352.984 687.898
 353.383 687.102 353.582 c 686.301 353.684 684.5 354.883 683.102 356.281
 c 680.699 358.781 680.602 358.883 682.199 362.281 c 683.898 365.684 l 681
 366.082 l 679.398 366.383 677.898 366.184 677.801 365.684 c 677.602 365.184
 676.699 364.684 675.699 364.484 c 672.102 363.984 671.5 362.184 673.602
 358.184 c 674.602 356.082 675.699 354.184 676 353.883 c 677.102 352.781
 679.398 349.383 678.602 350.082 c 678.102 350.582 677.199 349.883 676.5
 348.582 c 675.699 347.082 675.699 346.184 676.398 345.684 c 677.102 345.184
 677.102 344.883 676.301 344.883 c 675.602 344.883 675 344.383 675 343.781
 c 675 343.281 675.5 343.082 676.102 343.484 c 676.801 343.883 676.801 343.383
 676 341.984 c 674.5 338.984 672 340.984 671.898 345.281 c 671.801 348.383
 l 670.602 344.883 l 669.898 342.984 668.602 341.281 667.699 341.082 c 666.699
 340.883 666.199 339.781 666.199 337.781 c 666.301 334.184 669 333.883 672
 337.082 c 673.102 338.281 674.102 338.984 674.102 338.582 c 674.602 335.984
 674.5 335.281 673.699 334.082 c 673.199 333.484 671.898 332.883 670.898
 332.883 c 670 332.883 668.102 331.383 666.898 329.582 c 665.602 327.883
 663.898 325.883 663 325.184 c 661.699 324.184 661.699 323.984 663.301 323.281
 c 664.699 322.781 664.801 322.383 663.898 321.781 c 662.898 321.184 662.898
 320.781 663.898 319.582 c 664.898 318.281 664.801 318.082 662.898 318.582
 c 661.301 319.082 660.898 318.883 661.5 317.883 c 662.5 316.184 659.898
 314.684 658.301 316.082 c 657.602 316.582 656.301 316.883 655.5 316.484
 c 654.602 316.184 654.102 316.281 654.398 316.684 c 654.699 317.184 653.699
 318.781 652.398 320.484 c 650.898 322.184 650.102 322.684 650.398 321.582
 c 650.699 320.684 650.5 319.883 650 319.883 c 649.398 319.883 649 320.484
 649 321.184 c 649 321.984 648.301 322.582 647.398 322.582 c 646.398 322.582
 646 321.883 646.301 320.781 c 647.102 317.781 644.199 314.684 641.102 315.281
 c 638.5 315.883 l 641.199 314.383 l 644.102 312.781 646.602 309.184 645.5
 308.082 c 645.199 307.684 644.602 307.883 644.199 308.383 c 642.898 310.184
 640.301 309.383 636.102 305.684 c 633.898 303.781 632 301.781 632 301.383
 c 632 299.781 627.699 295.383 626.199 295.383 c 625.301 295.383 624.602
 294.781 624.801 294.082 c 625.102 292.184 622.199 292.684 620.301 294.883
 c 617.801 297.684 616.199 297.383 616.801 294.281 c 617.199 291.883 617.102
 291.781 615.199 292.781 c 612.699 294.184 612.699 297.883 615.199 297.883
 c 617.602 297.883 617.5 300.484 615.102 301.184 c 614.102 301.383 611.801
 300.984 610 300.281 c 607.301 299.082 606.898 299.082 607.301 300.281 c
 607.602 300.984 607.301 302.184 606.699 302.781 c 605 304.484 602 304.082
 601.199 301.984 c 600.602 300.281 600.301 300.184 598.602 301.484 c 597.199
 302.484 597 302.883 598.102 302.883 c 599.102 302.883 599.5 304.082 599.602
 307.082 c 599.602 309.484 600 313.082 600.5 315.082 c 601.199 318.781 601.199
 318.883 598.5 318.883 c 596 318.883 595.898 319.082 596.301 322.383 c 596.602
 324.281 596.398 325.582 595.898 325.281 c 595.398 324.984 595 323.781 595
 322.582 c 595 318.781 593.801 315.883 592.398 315.883 c 591.398 315.883
 591.102 315.082 591.5 313.082 c 591.801 311.582 591.699 310.984 591.398
 311.684 c 591.102 312.281 590.5 312.684 590.199 312.484 c 589.801 312.281
 589.5 313.984 589.5 316.184 c 589.602 321.883 588.199 325.781 586.199 325.781
 c 581.699 325.781 572.898 327.684 570.5 329.281 c 567.898 330.984 l 570.699
 333.184 l 572.199 334.383 574.301 336.082 575.398 337.082 c 577.102 338.684
 582.602 340.484 584.301 340.082 c 584.699 339.984 584.898 340.184 584.801
 340.582 c 584.5 342.281 588.102 348.883 589 348.383 c 589.602 347.984 590
 349.082 590 350.781 c 590 353.883 594.199 358.883 596.699 358.883 c 597.398
 358.883 598 359.383 598 359.984 c 598 360.582 598.699 360.781 599.602 360.484
 c 600.398 360.184 600.898 360.281 600.5 360.781 c 600.199 361.281 601.301
 361.984 603 362.383 c 604.801 362.781 605.699 363.484 605.301 364.184 c
 604.898 364.883 605.301 364.984 606.398 364.582 c 607.301 364.184 609.398
 364.582 610.898 365.281 c 616.699 368.383 618.898 366.383 619.398 357.781
 c 619.898 349.383 619.898 349.684 621 350.383 c 622.699 351.383 622.102
 349.883 620 347.684 c 618.102 345.582 618 345.582 618 347.484 c 618 348.984
 617.801 349.082 617.102 347.984 c 616.5 347.082 616.699 346.082 617.602
 345.184 c 619.199 343.484 619.398 341.883 618 341.883 c 617.5 341.883 617.301
 341.184 617.602 340.383 c 618 339.582 618.602 338.883 619.199 338.883 c
 619.699 338.883 619.801 339.281 619.5 339.883 c 618.699 341.281 621.301
 341.184 622.699 339.781 c 624.898 337.582 630 341.781 630.398 346.184 c
 630.5 347.484 633.199 348.781 634.699 348.184 c 635.5 347.883 636.602 348.984
 637.5 351.184 c 638.301 353.184 639.5 355.082 640.102 355.383 c 640.898
 355.984 645 364.082 645 365.383 c 645 365.484 643.199 365.184 641 364.684
 c 637.5 363.781 636.699 363.883 634 365.984 c 624.398 373.582 625.102 373.281
 623.102 371.484 c 622.102 370.582 621 369.883 620.699 369.883 c 619.602
 369.883 619.898 373.684 621 374.383 c 621.602 374.684 622 376.281 622 377.883
 c 622 381.484 617.398 386.184 614.602 385.484 c 613.5 385.184 612.102 385.383
 611.602 385.781 c 609.602 387.281 604.199 387.883 603.699 386.582 c 603.398
 385.781 602.699 385.883 601.398 387.184 c 599.898 388.582 599.801 389.281
 600.699 390.684 c 601.301 391.582 602.5 392.281 603.398 392.281 c 604.301
 392.184 605 392.484 605 392.984 c 605 393.883 603.398 394.281 601.602 393.984
 c 601.102 393.883 601 394.684 601.301 395.781 c 601.602 396.883 601.301
 397.984 600.602 398.184 c 599.801 398.484 599.898 399.082 600.898 400.184
 c 602.102 401.684 602 401.883 600.398 401.984 c 599 401.984 598.898 402.184
 600 402.582 c 600.801 402.883 601.699 403.484 602 403.883 c 602.301 404.281
 604.898 404.883 607.699 405.184 c 611.898 405.684 613.102 405.484 613.801
 404.184 c 614.5 402.984 615.898 402.684 619.801 403.082 c 623.301 403.383
 625.102 403.184 625.398 402.383 c 625.602 401.684 627.398 400.984 629.398
 400.684 c 631.301 400.484 632.602 400.684 632.398 401.082 c 632.102 401.484
 632.801 401.883 633.898 401.883 c 635.102 401.883 636 401.383 636 400.883
 c 636 400.281 636.898 399.883 637.898 399.883 c 638.898 399.883 640 399.184
 640.398 398.383 c 640.699 397.582 641.398 396.883 642 396.883 c 642.602
 396.883 642.801 397.383 642.5 397.883 c 641.398 399.684 647.102 397.883
 651.199 395.281 c 653.301 393.984 655.801 392.883 656.898 392.883 c 659.301
 392.883 664.199 390.781 665.199 389.383 c 665.699 388.781 666 389.082 666
 389.984 c 666 391.082 666.801 391.484 668.5 391.383 c 669.898 391.184 670.801
 391.582 670.699 392.184 c 670.301 394.582 676.102 394.082 679.801 391.484
 c 683.602 388.883 690 388.184 690 390.383 c 690 391.082 691.301 391.281
 693.398 391.082 c 695.199 390.883 697.102 391.184 697.398 391.781 c 697.801
 392.383 697.398 392.883 696.301 392.883 c 694.801 392.883 694.801 393.082
 695.898 393.781 c 696.898 394.484 697.699 394.281 698.5 393.184 c 699.5
 391.883 700 392.082 702.301 394.883 c 703.801 396.582 705 398.883 705 399.984
 c 705 400.984 705.398 401.883 706 401.883 c 706.5 401.883 707.301 403.383
 707.801 405.082 c 708.699 408.684 707.398 410.883 704.5 410.883 c 703.699
 410.883 701.801 411.582 700.5 412.484 c 699.199 413.281 697.102 413.883
 695.801 413.781 c 694.5 413.684 692 413.883 690.102 414.281 c 688.301 414.781
 685.602 415.281 684.102 415.383 c 680.199 415.883 671.898 418.383 668.398
 420.184 c 666.602 421.082 663.5 422.082 661.398 422.383 c 655.699 423.281
 654.699 423.484 653 424.184 c 651.199 424.883 636.602 427.082 632.5 427.281
 c 630.898 427.383 628.898 427.781 628.301 428.184 c 627.5 428.684 627 428.582
 627 427.883 c 627 427.281 626.5 427.082 625.801 427.582 c 625.102 427.984
 623.602 428.484 622.5 428.582 c 621.398 428.781 620.102 429.383 619.602
 429.883 c 618.199 431.281 615.801 431.082 616.5 429.582 c 616.898 428.984
 616.398 429.281 615.602 430.281 c 614.102 432.184 614 432.184 614 429.484
 c 614 427.984 613.602 426.984 613 427.383 c 612.5 427.684 612 428.984 612
 430.184 c 611.898 432.184 611.801 432.184 610.898 430.582 c 610.102 429.281
 609.5 429.082 608 429.883 c 607 430.383 605.398 430.582 604.5 430.281 c
 603.5 429.883 602.398 430.184 601.898 430.984 c 601.199 432.082 600.801
 431.984 599.699 430.484 c 598.699 429.184 598.102 428.984 597.602 429.684
 c 597.199 430.383 597.199 431.281 597.5 431.883 c 598.602 433.582 596.801
 432.984 595.5 431.184 c 594.398 429.781 593.898 429.684 592.699 430.684
 c 591.398 431.781 591 431.684 590 430.184 c 589 428.582 588.898 428.582
 589.301 430.582 c 589.699 432.582 589.398 432.883 586.898 432.883 c 585.301
 432.883 584 432.383 584 431.781 c 584 431.184 584.898 430.984 586.102 431.383
 c 588 431.984 588.102 431.883 586.898 430.684 c 585.602 429.184 580.602
 429.484 581.5 430.883 c 581.801 431.383 581.5 432.082 580.898 432.484 c
 580.102 432.984 580 432.781 580.5 431.883 c 581.102 430.883 580.801 430.684
 579.199 431.082 c 578 431.484 577.199 431.281 577.5 430.883 c 577.801 430.383
 577.602 429.781 577 429.383 c 576.5 429.082 576 429.484 576 430.281 c 576
 431.184 575.301 431.883 574.398 431.883 c 573.398 431.883 573 431.281 573.301
 430.383 c 573.801 429.383 573.199 428.984 571.102 429.184 c 569.199 429.281
 568.398 429.883 568.699 430.883 c 569 432.082 567.898 432.484 563.102 432.582
 c 559.699 432.582 557 432.281 557 431.684 c 557 431.184 556.301 431.383
 555.602 432.184 c 554.398 433.281 553.199 433.383 549.801 432.684 c 547.398
 432.184 542.199 431.582 538.102 431.383 c 533.699 431.281 530.5 430.684
 530 429.883 c 529.398 428.984 529.102 428.984 528.5 429.883 c 528 430.684
 527.301 430.582 525.898 429.281 c 524.898 428.383 524 428.082 524 428.684
 c 524 429.281 522.898 429.184 520.898 428.184 c 519.301 427.383 516.102
 426.484 513.898 426.184 c 511.801 425.883 510 425.184 510 424.781 c 510
 424.281 508.898 423.883 507.602 423.883 c 506.199 423.883 504.898 423.484
 504.5 422.984 c 504.199 422.484 501.398 421.781 498.199 421.383 c 495.102
 421.082 490.301 420.082 487.602 419.281 c 485 418.484 482.5 417.984 482.199
 418.281 c 481.898 418.582 481 418.281 480.199 417.582 c 478.898 416.684
 478.801 416.684 479.398 417.582 c 479.801 418.281 479.699 418.883 479.199
 418.883 c 477.898 418.883 477.898 424.781 479.301 425.582 c 480 426.082
 480.5 427.082 480.5 427.984 c 480.5 429.484 489.699 437.781 496.898 442.883
 c 498.801 444.184 501.898 445.281 503.898 445.484 c 505.898 445.582 508.199
 445.883 509 446.184 c 509.801 446.383 512 446.984 513.801 447.383 c 515.5
 447.781 517 448.383 517 448.781 c 517 449.184 517.801 449.582 518.801 449.684
 c 530.898 450.883 541.898 454.781 542 457.781 c 542 458.582 542.602 458.883
 543.602 458.484 c 544.898 457.984 545.102 458.484 544.699 461.781 c 544.301
 465.582 l 551.398 467.781 l 564 471.484 581.102 474.684 595.801 475.883
 c 609.398 476.984 632.102 476.781 642 475.383 c 661.301 472.582 682.602
 467.281 686 464.383 c 686.801 463.684 693.102 460.383 700 457.082 c 706.898
 453.781 715.199 448.984 718.398 446.383 c 724.199 441.684 724.199 441.582
 723.5 437.281 c 723 433.582 723.199 432.883 725.102 431.883 c 726.801 430.984
 727.398 430.984 728 431.883 c 729.602 434.484 729.602 430.383 728.102 427.684
 c 726.102 424.184 727.102 423.383 734.398 422.484 c 741.301 421.582 751.301
 418.781 752.199 417.484 c 752.602 416.883 753.199 416.781 753.602 417.082
 c 754 417.484 751.898 420.684 749 424.082 c 743.898 430.184 744 430.082
 750.699 422.984 c 754.699 418.883 758 416.082 758.398 416.684 c 758.699
 417.281 758.602 417.883 758.102 418.082 c 757.5 418.184 758.199 420.484
 759.5 423.184 c 762.602 429.281 761.898 431.184 753.699 438.984 c 733.602
 458.383 697.301 475.383 659.801 482.883 c 639.199 487.082 624.102 488.281
 600.5 487.582 c 581.301 486.984 567.801 485.281 548.5 480.781 c 545.801
 480.082 542.5 479.582 541.301 479.484 c 540.199 479.484 539.398 479.082
 539.699 478.582 c 540.102 477.883 537.102 477.383 534 477.684 c 532.5 477.883
 526.801 476.684 518.301 474.684 c 515.102 473.883 514.301 473.281 514.801
 472.082 c 515.301 470.684 515.199 470.582 513.801 471.883 c 512.398 473.281
 512.602 473.582 516.102 475.281 c 518.301 476.281 520.5 477.883 521 478.781
 c 522.801 482.184 514.801 479.684 500.301 472.383 c 491.898 468.082 486
 465.582 486 466.281 c 486 468.582 490.602 472.684 496.301 475.281 c 499.301
 476.781 502.301 478.582 503 479.383 c 503.699 480.184 504.602 480.684 505
 480.383 c 505.398 480.082 506.301 480.582 507 481.383 c 507.699 482.184
 509.102 482.883 510.102 482.883 c 511.199 482.883 512 483.281 512 483.781
 c 512 484.582 526.898 490.883 528.898 490.883 c 529.5 490.883 530 491.281
 530 491.684 c 530 492.184 533.301 493.484 537.301 494.582 c 556.602 500.082
 560.602 501.184 562.5 501.582 c 565.199 501.984 573.199 503.582 580.5 504.984
 c 583.801 505.684 588.602 506.184 591.199 506.082 c 593.801 505.984 596.199
 506.383 596.5 506.883 c 596.801 507.484 600.898 507.883 605.602 507.883
 c 610.301 507.883 613.898 508.281 613.602 508.781 c 613 509.684 603.102
 509.582 588.5 508.383 c 563.102 506.484 530.898 498.484 511.199 489.281
 c 508.301 487.984 505.398 487.082 504.898 487.383 c 504.398 487.781 504
 487.582 504 486.984 c 504 486.383 502.199 484.984 499.898 483.781 c 497.602
 482.684 496.102 482.184 496.398 482.781 c 496.801 483.281 496.602 484.082
 496 484.383 c 495.398 484.781 495 484.684 495.102 484.184 c 495.398 482.281
 494.898 481.082 493.398 480.484 c 492.5 480.082 492.102 480.281 492.602
 480.984 c 493 481.684 492.5 481.684 491 480.883 c 489.5 480.082 489 480.082
 489.398 480.781 c 489.801 481.383 489.699 481.883 489.102 481.883 c 488.602
 481.883 487.602 481.082 487.102 480.082 c 486.5 479.184 486 478.781 486
 479.184 c 486 479.582 484.5 478.582 482.801 476.984 c 481 475.281 479.199
 473.883 478.801 473.883 c 478.398 473.883 476.398 472.184 474.398 470.082
 c 472.398 468.082 471.301 467.281 472.102 468.383 c 475.199 472.684 477.398
 474.883 478.699 474.883 c 479.398 474.883 479.898 475.281 479.699 475.684
 c 479.199 477.383 494.801 489.383 508 497.383 c 518.699 503.781 523.898
 508.582 521.398 509.582 c 520.602 509.883 519.301 509.281 518.5 508.281
 c 517.199 506.582 517.102 506.582 517 508.082 c 517 508.984 517.5 509.883
 518.102 510.082 c 518.699 510.281 519.301 512.082 519.5 514.082 c 519.699
 516.184 520.102 518.281 520.5 518.883 c 520.801 519.383 520.699 519.883
 520.199 519.883 c 519.699 519.883 519 518.883 518.602 517.582 c 518.102
 515.781 517.801 515.684 517 516.883 c 516.5 517.684 516.301 519.281 516.602
 520.383 c 517.199 522.383 l 515.602 520.383 l 514.102 518.582 513.801 518.484
 512.801 519.984 c 511.801 521.484 511.102 521.383 506.301 518.781 c 500.398
 515.582 499.5 515.281 500.602 516.984 c 501 517.684 500.801 517.984 500.102
 517.781 c 499.398 517.484 498.898 516.984 499 516.582 c 499.102 515.281
 491.301 509.082 490.602 510.082 c 489.898 510.984 492.301 518.883 493.102
 518.383 c 493.602 517.984 494 518.281 494 518.781 c 494 519.383 493.5 519.883
 492.898 519.883 c 491.5 519.883 492.5 527.582 494.102 529.582 c 494.699
 530.184 494.898 531.281 494.5 531.883 c 493.602 533.383 495 538.984 496.102
 538.281 c 496.699 537.984 496.602 537.082 495.801 536.082 c 494.699 534.781
 494.801 534.582 496.301 535.184 c 498.199 535.883 501.898 532.984 501.301
 531.184 c 501.102 530.582 501.602 529.883 502.5 529.582 c 503.602 529.082
 504 529.684 504 531.883 c 504 533.582 503.5 534.883 502.801 534.883 c 502.102
 534.883 502.5 535.684 503.801 536.684 c 505.5 537.984 506 539.184 505.602
 541.184 c 505.301 542.883 505.602 543.883 506.301 543.883 c 507 543.883
 506.898 544.281 506 544.883 c 504.699 545.781 504.898 546.184 507 547.883
 c 508.398 548.984 510 549.883 510.699 549.883 c 511.301 549.883 512 550.184
 512.199 550.582 c 512.699 551.781 521.699 557.883 522.898 557.883 c 523.5
 557.883 525.801 558.984 528 560.383 c 536.398 565.684 550.5 570.781 563
 572.883 c 577.301 575.383 582.102 575.883 596.5 576.883 c 604.801 577.484
 616.398 578.281 622.301 578.684 c 629.102 579.082 633.5 578.984 634.102
 578.383 c 634.699 577.781 635.398 577.883 636 578.883 c 636.699 579.883
 637 579.984 637 579.082 c 637 577.383 642.801 577.582 644.602 579.281 c
 645.398 580.082 646.301 582.781 646.602 585.281 c 647 587.781 647.699 589.883
 648.102 589.883 c 648.602 589.883 649 590.484 649 591.281 c 649 591.984
 650.102 594.281 651.5 596.281 c 652.801 598.281 653.5 599.883 652.898 599.883
 c 652.301 599.883 652.301 600.582 653 601.781 c 653.5 602.883 654 605.082
 654 606.684 c 654 608.281 654.602 610.184 655.398 610.781 c 656.5 611.781
 657.602 616.383 658.301 622.984 c 658.398 624.082 659.102 624.383 660.5
 624.082 c 662.301 623.582 662.301 623.781 661.102 625.184 c 660.199 626.281
 660 627.984 660.398 630.281 c 660.801 632.281 660.5 634.781 659.801 636.484
 c 658.898 638.484 658.801 639.281 659.699 639.582 c 660.699 639.984 660.602
 642.484 659.301 645.883 c 658.898 646.684 658.801 647.984 658.898 648.781
 c 659 649.484 658.5 649.883 657.801 649.684 c 656.398 649.184 654 651.184
 654 652.781 c 654 653.383 654.5 653.781 655.199 653.582 c 656 653.484 656.699
 655.582 657.199 659.383 c 657.801 664.184 657.699 665.582 656.5 666.484
 c 654.801 667.781 654.5 669.883 656 669.883 c 657.301 669.883 657.301 674.484
 656.102 676.684 c 655.602 677.684 654.898 681.082 654.699 684.184 c 654.398
 687.383 653.602 690.582 653 691.383 c 652.398 692.184 652.102 693.281 652.5
 693.781 c 652.801 694.383 652.301 696.484 651.398 698.484 c 650.5 700.484
 649.699 703.582 649.801 705.484 c 649.898 708.383 649.5 709.184 647.199
 710.082 c 645.102 710.984 644.898 711.281 646.301 711.582 c 647.199 711.883
 648 712.484 648 712.984 c 648 713.582 647.5 713.684 646.898 713.281 c 645.199
 712.281 644.102 714.883 645 717.984 c 645.602 719.883 645.398 720.883 644.602
 721.184 c 644 721.484 643.398 723.484 643.301 725.781 c 643.199 728.383
 642.199 731.082 640.602 733.082 c 639.301 734.883 637.898 738.082 637.5
 740.082 c 637.102 742.184 636.398 743.883 635.898 743.883 c 635.398 743.883
 635 745.383 635 747.281 c 635 750.984 631 759.082 627.398 762.781 c 626.102
 764.082 625 765.781 625 766.484 c 625 767.281 624.602 767.883 624.199 767.883
 c 623.699 767.883 620.699 770.484 617.398 773.582 c 613.102 777.883 610.699
 779.383 608.5 779.484 c 603.5 779.684 585.602 780.684 584 780.781 c 581
 781.082 590.602 784.781 594.301 784.883 c 596.301 784.883 598 785.281 598
 785.883 c 598 786.383 599.199 786.883 600.602 786.883 c 602 786.883 602.898
 787.281 602.5 787.883 c 601.5 789.582 584.102 788.984 574.398 786.883 c
 569.398 785.883 560.301 782.984 554.301 780.582 c 543.301 776.184 l 542.301
 778.984 l 540.898 782.684 538.301 782.184 532.301 776.883 c 529.801 774.684
 527.301 772.883 526.898 772.883 c 526.102 772.883 524.199 770.281 517.602
 760.082 c 516 757.684 512.699 753.484 510.301 750.883 c 504.898 744.984
 501.199 739.281 494.699 726.883 c 492 721.684 489.199 716.684 488.5 715.883
 c 485.5 712.582 484.602 705.582 485.898 697.281 c 486.602 692.883 487.199
 687.582 487.199 685.383 c 487.301 674.582 478.898 628.582 476.301 625.684
 c 474.801 623.984 474.602 623.984 471.301 625.984 c 467.898 628.082 464.801
 628.184 456.801 626.281 c 454.602 625.781 453.898 626.184 452.699 628.582
 c 451.398 631.082 451.398 631.781 452.699 634.883 c 453.602 637.082 453.898
 639.684 453.5 641.883 c 453.199 643.781 452.699 647.582 452.5 650.383 c
 452.398 653.082 450.801 659.383 449.102 664.383 c 442.699 682.781 438 718.883
 440.5 731.082 c 441.398 735.281 442 736.082 446 738.184 c 448.5 739.484
 453.801 742.281 457.898 744.484 c 466 748.684 474 755.582 474 758.184 c
 474 759.082 472.699 760.984 471.102 762.484 c 469.5 763.883 468 766.281
 467.602 767.883 c 467.199 769.984 465.199 772.281 460.898 775.582 c 457.5
 778.281 453.398 781.684 451.898 783.184 c 450.301 784.781 449 785.582 449
 785.082 c 449 784.582 447.898 784.082 446.5 784.082 c 445.102 784.082 444
 784.484 444 784.984 c 444 785.484 443.5 785.883 442.898 785.883 c 442.301
 785.883 442 785.281 442.301 784.484 c 443.199 782.281 441.801 781.684 440.398
 783.684 c 439.102 785.281 439.102 785.281 439 783.582 c 439 782.684 438.301
 781.883 437.398 781.883 c 436.602 781.883 436.199 781.383 436.5 780.883
 c 437.102 779.984 435.5 779.484 432.301 779.582 c 431.602 779.684 431.301
 779.184 431.602 778.684 c 432 778.082 431.5 777.883 430.199 778.281 c 429.102
 778.684 427.898 778.484 427.602 777.984 c 427.199 777.484 424.801 776.684
 422.199 776.281 c 417.801 775.684 393.801 764.082 387.602 759.582 c 381.5
 755.281 369.199 747.582 364 744.883 c 360.398 742.984 353.199 738.684 348
 735.281 c 342.801 731.883 331.102 725.082 322 720.184 c 301.102 708.781
 297 706.484 289 701.582 c 280.301 696.184 272.301 691.781 261.602 686.281
 c 256.699 683.781 250.801 680.484 248.602 679.082 c 241.102 674.383 209.102
 657.883 207.5 657.883 c 206.801 657.883 205.102 656.883 203.699 655.684
 c 200.898 653.281 197.801 651.582 183.801 644.883 c 178.898 642.582 175
 640.184 175 639.582 c 174.898 637.984 171.5 633.883 170.199 633.883 c 169.602
 633.883 166.102 632.484 162.301 630.781 c 147.301 623.984 118.301 614.582
 100.898 610.883 c 95.699 609.781 87.5 607.984 82.5 606.883 c 77.602 605.781
 69.898 604.184 65.5 603.383 c 56.801 601.883 43.398 598.984 41 598.082 
c 40.199 597.781 39.102 597.484 38.5 597.383 c 36.801 597.281 24.801 589.684
 19.5 585.281 c 9.602 577.281 8.398 577.484 3.398 588.582 c 0.199 595.684
 0 596.484 0 607.781 c 0 619.082 0.102 619.684 3 624.281 c 4.699 626.883
 7 629.984 8.102 631.184 c 9.199 632.383 10.898 635.082 11.699 637.184 c
 14.199 643.383 19.898 644.781 24.102 640.281 c 27.801 636.184 35.102 631.883
 38.199 631.883 c 40.898 631.883 41.102 632.082 40.5 635.184 c 39.5 640.582
 41.699 641.984 50.398 641.781 c 54.398 641.582 58.102 641.883 58.801 642.281
 c 60.5 643.281 60.301 647.582 58.398 652.582 c 57.5 654.984 56.898 657.184
 57.199 657.484 c 57.801 657.984 60.5 656.484 68.102 651.484 c 70.5 649.883
 75.398 647.184 78.898 645.582 c 85.398 642.684 l 93.398 644.281 l 97.898
 645.184 102.898 645.883 104.699 645.883 c 109 645.883 111.898 647.184 115.801
 650.781 c 117.699 652.484 120.602 654.582 122.301 655.281 c 124.102 655.984
 126.699 657.684 128.102 659.082 c 130.199 660.984 132 661.582 136 661.781
 c 138.898 661.883 144.5 662.383 148.398 662.984 c 153.199 663.582 155.602
 663.582 155.801 662.883 c 156 662.383 156.801 661.883 157.699 661.883 c
 158.5 661.883 160.398 660.984 162 659.883 c 164.898 657.781 172 656.281
 174.398 657.184 c 175.602 657.684 175.699 658.484 174.602 662.582 c 173.898
 665.184 172.102 670.082 170.5 673.383 c 169 676.684 167.602 680.883 167.301
 682.684 c 166.699 685.984 l 170.102 684.684 l 172 683.883 174.602 683.383
 176 683.484 c 179.102 683.684 185.301 686.082 186.199 687.383 c 186.602
 687.984 193.398 688.383 202.699 688.484 c 211.398 688.484 219 688.582 219.602
 688.684 c 220.898 688.883 225.5 692.781 225.5 693.684 c 225.699 695.883
 229.5 701.184 231.5 702.082 c 232.898 702.684 234 703.781 234 704.582 c
 234 705.281 235.102 706.383 236.398 706.883 c 237.699 707.383 239.102 708.281
 239.5 708.781 c 239.801 709.383 241.199 709.883 242.5 709.883 c 243.801
 709.883 245.199 710.383 245.5 710.984 c 245.898 711.582 246.801 711.781
 247.602 711.484 c 248.301 711.184 249.199 711.383 249.5 711.883 c 249.801
 712.281 252.102 713.684 254.801 714.984 c 257.398 716.184 259.699 717.582
 260 717.883 c 261 719.281 267.398 720.883 271.699 720.883 c 275.5 720.883
 276.301 721.281 277.801 723.883 c 279.5 726.883 286.898 730.883 290.699
 730.883 c 291.801 730.883 293 731.281 293.602 731.883 c 294.102 732.383
 296.301 733.184 298.5 733.684 c 301.801 734.281 302.602 734.883 302.801
 737.082 c 303 738.582 302.199 741.582 301.102 743.781 c 298.5 748.781 298.5
 749.883 300.898 749.883 c 304 749.883 313.398 745.582 315.5 743.184 c 318
 740.383 318.898 740.383 322.801 742.582 c 326.398 744.684 329 748.684 329
 752.184 c 329 755.781 330.602 756.383 334.602 754.281 c 338.801 751.984
 340.801 752.984 342.5 757.984 c 343.699 761.383 l 350.602 761.082 l 356.398
 760.883 358.801 761.281 365.301 763.883 c 369.602 765.484 374.199 766.883
 375.5 766.883 c 378 766.883 390.5 774.883 395.699 779.883 c 397.5 781.484
 399.301 782.883 399.898 782.883 c 402.398 782.883 407 786.484 407 788.484
 c 407 790.684 398.602 808.383 394.301 815.184 c 392.898 817.383 389.898
 822.883 387.398 827.484 c 383 835.883 l 416.102 835.883 l 419.898 831.684
 l 423.602 827.781 424.102 827.582 431.102 826.984 c 435.199 826.582 439.5
 825.781 440.699 825.082 c 443.801 823.383 451.5 823.582 453 825.383 c 454.602
 827.383 458.102 827.281 462.5 825.184 c 467.398 822.883 469.301 824.184
 470.301 830.781 c 471.199 835.883 l 609.602 835.883 l 732 835.883 748 835.684
 748 834.383 c 748 833.582 748.5 832.883 749.199 832.883 c 749.801 832.883
 750 832.582 749.699 832.184 c 749.301 831.883 749.898 830.184 751 828.484
 c 752.398 826.184 752.801 823.984 752.5 820.582 c 752.301 817.383 752.5
 815.883 753.301 815.883 c 754.199 815.883 754.398 814.582 754.199 811.883
 c 754 809.684 754.301 806.484 755 804.883 c 756 802.484 756 801.184 754.801
 798.184 c 753.898 796.082 753.5 793.781 753.699 793.082 c 754 792.484 753.602
 791.883 753 791.883 c 752.102 791.883 751.898 790.781 752.301 788.281 c
 752.801 785.582 752.5 784.582 751.301 784.184 c 750.398 783.781 749.398
 784.082 749.199 784.684 c 749 785.383 747.5 785.883 746 785.883 c 743 785.883
 740 782.883 740 779.781 c 740 778.781 739.398 777.781 738.801 777.582 c
 737.801 777.184 737.801 776.883 738.699 776.184 c 739.398 775.684 740.199
 773.781 740.5 771.883 c 740.801 769.984 741.898 767.281 743 765.883 c 750.102
 756.684 750 756.883 749 749.383 c 747.602 739.684 747.699 739.684 745.5
 736.484 c 744 734.281 743.898 733.383 744.801 731.984 c 747.602 728.184
 747.898 725.984 746.602 720.781 c 745 714.883 743.699 713.582 739.801 714.281
 c 737.301 714.781 737 714.484 737 712.281 c 737 710.781 737.398 709.984
 738 710.383 c 738.602 710.781 738.199 709.582 737 707.684 c 735.699 705.582
 735 702.684 735 699.582 c 735 694.383 732.801 687.883 731 687.883 c 730.398
 687.883 728.898 689.984 727.801 692.582 c 724.5 700.184 721.199 704.883
 719.602 704.281 c 717.699 703.582 715.602 699.281 716.5 697.883 c 716.898
 697.184 717.398 693.883 717.5 690.484 c 717.602 687.184 718 683.281 718.5
 681.984 c 719.102 680.082 718.898 679.684 717.699 680.184 c 716.398 680.684
 716.301 680.281 717.199 677.582 c 717.699 675.781 718.102 671.281 718.102
 667.484 c 718 661.082 719.199 657.281 721 658.383 c 721.898 658.984 723.398
 654.281 723.199 651.383 c 723.102 650.281 722.801 645.082 722.398 639.883
 c 721.801 631.984 722.102 628.582 724 620.082 c 725.199 614.383 725.898
 609.082 725.602 608.281 c 725.301 607.383 725.699 605.781 726.5 604.582
 c 728.102 602.383 728.602 599.383 727.199 600.281 c 726.801 600.484 726.398
 597.484 726.301 593.582 c 726.102 589.582 725.898 585.484 725.801 584.383
 c 725.602 583.184 726 582.484 726.699 582.582 c 727.5 582.781 727.898 581.582
 727.898 579.082 c 727.801 574.082 729 568.582 730.398 567.684 c 731.199
 567.184 731.102 566.883 730.301 566.883 c 729.602 566.883 729 566.383 729
 565.883 c 729 565.281 729.699 564.883 730.5 564.883 c 731.301 564.883 732
 564.082 732 562.984 c 732 561.984 732.898 560.883 734 560.582 c 735.398
 560.281 736 559.184 736 557.484 c 736 556.082 735.602 554.883 735 554.883
 c 733.602 554.883 733.801 552.184 735.301 551.484 c 736.301 550.984 736.301
 550.781 735.301 550.281 c 733.699 549.582 733.602 546.281 735 545.383 c
 735.602 544.984 735.801 544.383 735.5 543.883 c 735 542.984 738.398 530.484
 741.199 522.883 c 741.898 520.984 743.699 517.781 745.102 515.883 c 748.602
 511.082 751.301 505.082 750.398 503.684 c 749.898 502.984 750.5 502.781
 752.301 503.281 c 753.801 503.582 755.199 503.383 755.5 502.781 c 756.301
 501.582 760.199 499.984 761.102 500.484 c 761.398 500.684 761.102 504.281
 760.398 508.582 c 759.602 512.883 758.5 520.184 758 524.883 c 757.398 529.582
 756.699 534.684 756.398 536.383 c 755.898 539.383 l 757.5 536.582 l 759.199
 533.582 760 533.281 761.801 535.082 c 763.199 536.484 763.398 541.883 762.102
 541.883 c 761.602 541.883 760.699 543.883 760.102 546.383 c 759.5 548.883
 758.602 550.883 758.102 550.883 c 756.5 550.883 755.602 554.984 755.602
 562.582 c 755.5 567.984 755.801 569.883 756.801 569.883 c 757.5 569.883
 757.801 569.484 757.5 568.883 c 757.199 568.281 757.301 567.883 757.801
 567.883 c 758.602 567.883 763.102 564.184 769 558.484 c 769.801 557.684
 771.898 556.684 773.5 556.281 c 775.199 555.883 777 555.281 777.5 554.883
 c 778.102 554.484 780.602 553.582 783.199 552.984 c 787 551.883 788.301
 551.883 790.602 552.984 c 793.301 554.281 795.602 559.184 794.398 561.082
 c 793.699 562.184 789.301 562.082 787.199 560.984 c 786.301 560.582 783.898
 559.883 781.898 559.484 c 778.602 558.883 777.699 559.281 773.102 563.082
 c 769.898 565.781 768 568.184 768 569.582 c 768 570.781 767.5 571.883 766.898
 572.082 c 765.102 572.684 770.301 576.984 775.102 578.781 c 778.5 580.082
 782.102 580.484 790.5 580.281 c 796.602 580.082 803.102 579.684 805 579.383
 c 809.398 578.582 815 575.684 817.398 572.984 c 819.801 570.281 830.301
 565.184 836.898 563.484 c 841.5 562.281 842 562.383 842 563.781 c 842 568.184
 831.699 579.984 824.699 583.484 c 820 585.984 816 590.781 816 594.082 c
 816 596.684 816.602 596.383 820.801 591.984 c 823.5 589.082 826.102 587.582
 830.5 586.383 c 834.102 585.383 837.898 583.383 840 581.484 c 845.602 576.383
 851 573.082 861.602 568.484 c 881.199 559.984 900 550.184 900 548.684 c
 899.898 547.082 897 543.781 894.5 542.281 c 890.102 539.883 878.699 537.684
 873.102 538.281 c 868.801 538.781 866.602 538.484 863.5 536.984 c 859.602
 535.082 859.5 535.082 856.898 536.984 c 854.102 538.883 l 843.301 535.281
 l 837.398 533.281 831.602 531.082 830.5 530.383 c 829.398 529.684 827.398
 528.781 826 528.383 c 824.602 527.984 819.801 525.883 815.301 523.781 c
 810.801 521.582 806.699 519.883 806.102 519.883 c 805.602 519.883 797.699
 516.082 788.602 511.383 c 770.801 502.184 766.699 501.082 765.602 505.383
 c 765.199 506.781 764.5 507.883 763.898 507.883 c 762.602 507.883 763.5
 501.082 766.102 491.383 c 767.102 487.484 768.398 481.484 769.102 477.883
 c 769.699 474.281 771.898 465.781 774 458.883 c 776.102 451.984 778.398
 443.684 779 440.383 c 779.699 437.082 780.699 433.484 781.301 432.383 c
 785.102 425.281 788.102 418.582 787.602 418.082 c 787.301 417.781 787 418.184
 787 418.984 c 787 420.184 786.801 420.082 786 418.883 c 785.102 417.582
 784.898 417.582 783.898 418.883 c 783.102 420.082 783 419.883 783.5 417.984
 c 784 416.383 783.898 415.883 783.102 416.281 c 781.301 417.484 781.898
 415.383 784.102 412.781 c 787.398 408.984 789.301 403.781 787.898 402.484
 c 787 401.684 786.898 401.684 787.398 402.684 c 787.801 403.383 787.102
 405.184 785.602 406.984 c 784.199 408.684 782.699 411.082 782.398 412.383
 c 782.102 413.684 781.199 414.984 780.5 415.281 c 779.398 415.684 779.301
 415.281 780 413.484 c 780.398 412.281 780.5 410.582 780 409.883 c 779.602
 409.184 779.398 405.984 779.699 402.883 c 780.199 397.484 780 396.883 776.102
 391.082 c 772 385.082 l 784.602 368.684 l 791.5 359.781 797.5 352.281 798
 352.082 c 798.898 351.781 800.398 368.883 799.699 371.582 c 799.398 372.582
 798.898 376.781 798.5 380.984 c 798 387.082 798.199 388.781 799.398 389.781
 c 800.301 390.582 800.801 391.484 800.5 391.883 c 800.199 392.281 800.699
 392.883 801.5 393.281 c 802.301 393.582 803 394.281 803 394.883 c 803 395.484
 803.898 396.984 805 398.082 c 806.102 399.281 807.898 402.184 809.102 404.484
 c 811 408.484 813.602 411.184 820.398 416.383 c 825.699 420.383 833 427.984
 833 429.383 c 833 430.184 833.801 431.781 834.801 432.883 c 840.102 438.984
 847.398 445.883 854.5 451.484 c 858.898 454.984 863.602 458.984 865 460.484
 c 866.398 461.984 869.801 464.883 872.602 466.883 c 875.398 468.984 879.398
 472.582 881.602 474.883 c 883.699 477.281 887 480.484 888.801 482.184 c
 890.602 483.883 893.301 487.184 894.801 489.582 c 899.602 497.184 900 496.383
 900 479.781 c 900 464.781 l 894.301 458.582 l 888.5 452.281 883.898 446.781
 878 439.484 c 875.199 435.883 867.699 427.383 857.398 416.383 c 855.398
 414.184 852.102 410.383 850.102 407.883 c 848.102 405.383 843.801 400.184
 840.5 396.281 c 837.199 392.383 832.699 387.082 830.5 384.281 c 828.301
 381.582 824.898 377.582 822.898 375.383 c 820.898 373.184 817.398 368.684
 815 365.383 c 807.898 355.484 801.898 348.781 800.801 349.484 c 799.102
 350.582 805.301 341.984 816.898 327.082 c 833 306.383 832.699 307.082 829.102
 300.082 c 823.898 289.883 810.801 283.781 804.199 288.484 c h
645.199 319.281 m 645.801 318.883 645.801 319.484 645.102 320.781 c 643.602
 323.484 642.5 323.484 640.602 320.684 c 639.102 318.582 639.199 318.383
 641.301 317.281 c 643.199 316.184 643.5 316.281 643.801 317.984 c 644 319.082
 644.602 319.582 645.199 319.281 c h
638 317.984 m 638 318.383 637.301 318.883 636.5 319.281 c 635.699 319.582
 635 320.781 635 321.883 c 635 323.484 634.398 323.883 631.5 323.883 c 629.602
 323.883 628 323.383 628 322.883 c 628 322.281 628.398 321.883 628.801 321.883
 c 629.301 321.883 630.102 320.883 630.699 319.582 c 631.5 317.883 632.602
 317.281 634.898 317.383 c 636.602 317.383 638 317.684 638 317.984 c h
661 322.883 m 661 324.184 659.898 324.184 658 322.883 c 656.801 322.082
 656.898 321.883 658.801 321.883 c 660 321.883 661 322.281 661 322.883 c
 h
644 325.383 m 644 326.184 643.801 326.883 643.602 326.883 c 643.398 326.883
 643 326.184 642.602 325.383 c 642.301 324.582 642.5 323.883 643 323.883
 c 643.602 323.883 644 324.582 644 325.383 c h
593 330.781 m 593 333.984 592.398 333.184 591.602 328.883 c 591.199 326.383
 591.301 325.781 592 326.883 c 592.5 327.684 593 329.484 593 330.781 c h
650.699 368.184 m 651.301 368.582 652.102 368.383 652.301 367.883 c 652.602
 367.281 652.699 367.383 652.602 368.082 c 652.301 369.484 647.199 369.484
 645.898 368.184 c 644.898 367.184 649.102 367.184 650.699 368.184 c h
676.898 385.281 m 677.801 386.383 677.801 386.883 676.898 387.383 c 676.301
 387.781 675.398 387.582 675 386.883 c 674.5 386.082 673.398 385.984 671.898
 386.383 c 669.801 387.082 669.699 386.984 670.898 385.484 c 672.602 383.484
 675.398 383.383 676.898 385.281 c h
602.699 391.082 m 602.398 391.883 602.102 391.582 602.102 390.484 c 602
 389.383 602.301 388.781 602.602 389.184 c 602.898 389.484 603 390.383 602.699
 391.082 c h
608 394.883 m 609.199 395.684 609 395.883 607.102 395.883 c 605.398 395.883
 604.898 396.281 605.199 397.684 c 605.602 398.883 605.102 399.484 603.898
 399.484 c 602.398 399.484 602.199 398.984 602.602 397.383 c 603.699 394.184
 605.5 393.281 608 394.883 c h
611.699 402.484 m 611.398 402.781 610.5 402.883 609.801 402.582 c 609 402.281
 609.301 401.984 610.398 401.984 c 611.5 401.883 612.102 402.184 611.699
 402.484 c h
534.102 447.484 m 538.898 450.684 541.199 452.883 539.602 452.883 c 538.699
 452.883 526.5 447.582 525.301 446.582 c 524.602 446.082 524.301 445.281
 524.602 444.781 c 525.602 442.984 528.898 443.984 534.102 447.484 c h
756.5 448.484 m 750.699 453.781 744.199 458.383 743.5 457.684 c 743 457.184
 760 443.883 761 443.984 c 761.301 443.984 759.301 445.984 756.5 448.484
 c h
766.199 451.582 m 759.301 461.082 736.602 477.684 719 486.082 c 695.102
 497.484 664.699 506.082 644 507.281 c 639.898 507.484 637.898 507.484 639.5
 507.184 c 641.199 506.984 649.301 505.383 657.5 503.684 c 665.801 501.984
 673.898 500.383 675.5 500.184 c 677.199 499.883 679 499.281 679.5 498.883
 c 680.102 498.484 684.398 496.984 689.199 495.484 c 694.102 493.984 698.199
 492.281 698.602 491.781 c 698.898 491.281 699.898 490.883 700.898 490.883
 c 703.398 490.883 725.5 479.383 737.398 471.883 c 742.801 468.484 751.602
 461.883 756.801 457.281 c 766.699 448.582 769.602 446.883 766.199 451.582
 c h
735 464.281 m 733.102 465.582 731.301 466.484 731.102 466.281 c 730.398
 465.684 735.398 461.984 737 461.883 c 737.801 461.883 736.898 462.984 735
 464.281 c h
757.199 496.484 m 756.398 497.883 756.199 497.883 755 496.383 c 753.898
 495.082 754 494.883 755.5 495.484 c 756.898 496.082 757.102 495.781 756.602
 493.781 c 756 491.781 756.102 491.684 757 493.082 c 757.699 494.184 757.801
 495.484 757.199 496.484 c h
653 704.883 m 653 705.383 652.602 705.883 652 705.883 c 651.5 705.883 651
 705.383 651 704.883 c 651 704.281 651.5 703.883 652 703.883 c 652.602 703.883
 653 704.281 653 704.883 c h
302.898 721.383 m 305.898 722.883 309.699 729.582 308.301 730.883 c 307.898
 731.281 306.5 731.984 305.301 732.281 c 303.398 732.883 302.5 732.184 299.699
 727.684 c 295 720.484 296.301 717.883 302.898 721.383 c h
302.898 721.383 m f
589.602 288.984 m 587.602 295.281 589.102 296.781 593.199 292.684 c 594.898
 290.984 595.102 290.383 593.898 290.082 c 593.102 289.781 591.898 289.184
 591.301 288.684 c 590.398 287.984 589.898 288.082 589.602 288.984 c h
589.602 288.984 m f
624.602 289.184 m 623.102 290.281 623.398 290.883 628.301 295.082 c 633.699
 299.781 633.801 299.781 634.301 297.383 c 634.801 294.684 631.699 290.281
 629 289.684 c 628.199 289.484 627.199 289.082 626.898 288.684 c 626.602
 288.184 625.602 288.484 624.602 289.184 c h
624.602 289.184 m f
490.602 293.184 m 486.199 296.684 478.301 304.883 474.898 309.383 c 473.699
 311.082 476.199 308.781 480.602 304.281 c 484.898 299.883 490 294.984 491.898
 293.484 c 493.699 291.984 495.102 290.684 494.898 290.383 c 494.699 290.184
 492.699 291.484 490.602 293.184 c h
490.602 293.184 m f
594.5 297.781 m 594.199 298.984 593.5 299.883 593 299.883 c 592.5 299.883
 592.301 300.582 592.602 301.383 c 593.301 303.184 595.398 303.383 594.699
 301.582 c 594.5 300.984 594.699 299.582 595.199 298.582 c 595.699 297.582
 595.898 296.484 595.699 296.184 c 595.398 295.984 594.898 296.684 594.5
 297.781 c h
594.5 297.781 m f
597.699 297.883 m 597.398 298.984 597.5 300.082 597.898 300.281 c 598.301
 300.582 598.699 299.684 598.801 298.281 c 599 295.383 598.398 295.184 597.699
 297.883 c h
597.699 297.883 m f
242 303.781 m 242 304.984 242.5 305.883 243 305.883 c 243.602 305.883 244
 305.281 244 304.484 c 244 303.684 243.602 302.684 243 302.383 c 242.5 302.082
 242 302.684 242 303.781 c h
242 303.781 m f
594.301 305.383 m 594.301 306.184 594.699 306.582 595.199 306.281 c 595.699
 305.984 595.801 305.281 595.5 304.781 c 594.602 303.484 594.301 303.684
 594.301 305.383 c h
594.301 305.383 m f
539.801 306.781 m 539 307.883 538 308.582 537.699 308.184 c 537.301 307.883
 537 307.984 537 308.582 c 537 309.684 544.898 311.281 545.801 310.383 c
 546.102 310.082 545.199 308.684 543.801 307.281 c 541.301 304.684 l h
539.801 306.781 m f
246 307.281 m 246 308.184 246.5 308.883 247 308.883 c 247.602 308.883 248
 308.484 248 307.984 c 248 307.383 247.602 306.684 247 306.383 c 246.5 306.082
 246 306.484 246 307.281 c h
246 307.281 m f
549.699 313.781 m 548.301 315.484 547.102 316.684 546.801 316.582 c 546.602
 316.484 546.801 316.781 547.199 317.281 c 547.602 317.781 548.602 317.383
 549.5 316.484 c 550.398 315.582 551.5 315.082 551.801 315.281 c 552.199
 315.484 552.602 314.582 552.602 313.281 c 552.801 310.281 552.699 310.281
 549.699 313.781 c h
549.699 313.781 m f
596 314.281 m 596.5 315.582 596.602 316.984 596.301 317.281 c 595.898 317.582
 596.199 317.883 596.898 317.883 c 597.699 317.883 598 317.281 597.602 316.281
 c 597.301 315.383 597 314.082 597 313.281 c 597 312.484 596.602 311.883
 596 311.883 c 595.398 311.883 595.398 312.781 596 314.281 c h
596 314.281 m f
185.5 313.883 m 185.801 314.383 186.5 314.883 187.102 314.883 c 187.602
 314.883 188 314.383 188 313.883 c 188 313.281 187.301 312.883 186.398 312.883
 c 185.602 312.883 185.199 313.281 185.5 313.883 c h
185.5 313.883 m f
668.801 327.082 m 670.699 332.082 670.801 332.383 671.602 331.684 c 672.301
 330.984 669.5 324.281 668.199 323.484 c 667.602 323.184 667.898 324.781
 668.801 327.082 c h
668.801 327.082 m f
561.801 327.582 m 562.5 327.883 563.398 327.781 563.699 327.484 c 564.102
 327.184 563.5 326.883 562.398 326.984 c 561.301 326.984 561 327.281 561.801
 327.582 c h
561.801 327.582 m f
555 332.883 m 555 333.383 555.602 333.883 556.398 333.883 c 557.199 333.883
 558.199 333.383 558.5 332.883 c 558.801 332.281 558.199 331.883 557.102
 331.883 c 555.898 331.883 555 332.281 555 332.883 c h
555 332.883 m f
205.602 336.484 m 201.102 338.082 195.301 341.582 192.801 344.082 c 191.801
 345.082 190.602 345.883 190.102 345.883 c 189.602 345.883 187.5 346.684
 185.398 347.582 c 183.199 348.484 181.102 349.281 180.5 349.383 c 180 349.484
 179.301 349.684 179 349.781 c 176.5 350.883 169.898 350.684 168.801 349.484
 c 167.602 348.281 167 348.484 165.102 350.484 c 163.801 351.781 162.398
 352.883 161.898 352.883 c 160.102 352.883 161 356.781 163.5 359.684 c 168.898
 366.082 165.602 373.984 154.5 381.383 c 151.801 383.281 146.398 387.484
 142.5 390.883 c 138.699 394.184 133.301 398.082 130.5 399.484 c 127.801
 400.883 122.398 404.484 118.5 407.383 c 114.699 410.383 109.898 413.484
 108 414.281 c 104 415.984 94 423.082 82.5 432.383 c 78.102 435.984 70.801
 441.383 66.199 444.383 c 56.102 451.082 47.602 458.984 40.5 468.383 c 37.602
 472.281 32.199 478.082 28.602 481.281 c 25 484.484 22.301 487.484 22.602
 487.984 c 23.398 489.383 33.102 488.184 40.898 485.781 c 48.602 483.383
 54.5 480.383 62.801 474.984 c 66.102 472.684 69.199 470.883 69.602 470.883
 c 70 470.883 72.602 469.184 75.398 467.082 c 78.199 464.984 81.699 462.582
 83.199 461.582 c 84.699 460.684 88.102 457.984 90.801 455.582 c 99.699 
447.883 101 446.883 102.398 446.883 c 103.199 446.883 104 446.582 104.199
 446.082 c 104.398 445.684 107.699 443.082 111.5 440.383 c 115.398 437.684
 123.898 430.281 130.5 423.883 c 137.102 417.484 146.102 408.984 150.5 404.883
 c 154.898 400.883 162 394.082 166.398 389.684 c 170.699 385.383 174.699
 381.883 175.199 381.883 c 175.699 381.883 177.602 380.281 179.602 378.383
 c 181.5 376.484 183.5 374.883 184 374.883 c 184.602 374.883 185 374.184
 185 373.383 c 185 372.582 185.699 371.883 186.5 371.883 c 187.398 371.883
 188.398 371.082 188.699 370.082 c 189.102 369.184 190.102 367.781 191.102
 367.184 c 192.102 366.484 193.801 364.383 195 362.484 c 196.102 360.582
 199.5 357.383 202.5 355.484 c 211.699 349.383 215 345.684 215 341.582 c
 215 334.582 213.301 333.582 205.602 336.484 c h
205.602 336.484 m f
542.102 338.582 m 542.102 339.184 541.199 339.984 540.102 340.383 c 538.801
 340.781 538.398 341.582 538.699 343.281 c 539.102 345.184 538.5 346.082
 536.398 347.281 c 533.5 348.883 l 536.5 348.684 l 538.898 348.484 539.898
 347.582 541.301 344.684 c 542.301 342.582 542.898 340.082 542.699 339.184
 c 542.398 338.184 542.199 337.883 542.102 338.582 c h
542.102 338.582 m f
530.5 348.883 m 530.801 349.383 531.5 349.883 532.102 349.883 c 532.602
 349.883 533 349.383 533 348.883 c 533 348.281 532.301 347.883 531.398 347.883
 c 530.602 347.883 530.199 348.281 530.5 348.883 c h
530.5 348.883 m f
692 349.883 m 691.199 350.383 691 350.883 691.5 350.883 c 692.102 350.883
 693.199 350.383 694 349.883 c 694.801 349.383 695.102 348.883 694.5 348.883
 c 694 348.883 692.801 349.383 692 349.883 c h
692 349.883 m f
214.5 372.582 m 210.398 374.781 209 376.383 209 378.781 c 209 380.582 209.398
 380.781 212.301 380.184 c 216.5 379.383 221 377.082 221 375.781 c 221 374.281
 219.102 370.883 218.199 370.883 c 217.801 370.984 216.199 371.684 214.5
 372.582 c h
214.5 372.582 m f
791.699 380.883 m 790.301 384.281 788.102 391.281 788.398 391.582 c 789.102
 392.281 793.102 382.684 792.699 381.082 c 792.398 379.684 792.199 379.684
 791.699 380.883 c h
791.699 380.883 m f
598.199 386.281 m 597.5 387.883 597.398 388.883 598.102 388.883 c 599.301
 388.883 600.301 386.383 599.801 384.781 c 599.602 384.184 598.898 384.781
 598.199 386.281 c h
598.199 386.281 m f
594.199 388.082 m 593.5 389.684 592.301 390.883 591.301 390.984 c 589.898
 390.984 589.801 391.184 591 391.582 c 593.699 392.684 594.801 394.484 594.301
 397.184 c 594 398.684 594.199 399.883 594.801 399.883 c 596.199 399.883
 597.199 391.883 596.102 388.383 c 595.301 385.383 l h
596 391.281 m 596 391.582 595.602 392.082 595 392.383 c 594.5 392.684 594
 392.484 594 391.984 c 594 391.383 594.5 390.883 595 390.883 c 595.602 390.883
 596 391.082 596 391.281 c h
596 391.281 m f
585.699 393.383 m 584.199 394.484 584.102 394.684 585.5 395.281 c 586.398
 395.582 587.301 395.184 587.699 394.281 c 588.5 392.184 587.801 391.781
 585.699 393.383 c h
585.699 393.383 m f
784.699 398.684 m 783.199 401.781 782.602 403.582 783.301 402.684 c 784.102
 401.684 785 401.082 785.301 401.383 c 785.699 401.684 785.801 401.582 785.5
 401.281 c 785.301 400.883 785.699 399.082 786.602 397.082 c 789 391.383
 787.602 392.484 784.699 398.684 c h
784.699 398.684 m f
589.602 395.582 m 588.801 397.484 591.102 399.383 592.102 397.684 c 592.898
 396.383 592.199 393.883 591 393.883 c 590.602 393.883 589.898 394.684 589.602
 395.582 c h
589.602 395.582 m f
598 397.484 m 598 398.281 598.5 398.684 599 398.383 c 599.602 397.984 599.801
 397.281 599.5 396.781 c 598.602 395.383 598 395.684 598 397.484 c h
598 397.484 m f
583.801 402.582 m 584.5 402.883 585.398 402.781 585.699 402.484 c 586.102
 402.184 585.5 401.883 584.398 401.984 c 583.301 401.984 583 402.281 583.801
 402.582 c h
583.801 402.582 m f
780.602 406.582 m 780.199 407.484 780.301 408.582 780.801 409.082 c 781.398
 409.684 781.801 408.984 781.801 407.484 c 781.801 404.484 781.5 404.281
 780.602 406.582 c h
780.602 406.582 m f
437 409.484 m 437 411.883 452.199 431.984 455.699 434.184 c 456.398 434.582
 459.602 437.281 462.699 439.984 c 465.898 442.781 471.199 446.484 474.5
 448.082 c 477.801 449.781 482.301 452.383 484.5 453.883 c 488.699 456.684
 497 461.184 497 460.582 c 497 460.383 494.602 458.684 491.801 456.883 c
 477.898 448.184 465.801 438.781 456.602 429.582 c 454.602 427.582 452.602
 425.883 452.102 425.883 c 451.602 425.883 448.398 422.383 445 418.082 c
 436.699 407.984 437 408.281 437 409.484 c h
437 409.484 m f
189.5 411.781 m 184.5 414.184 179.602 418.484 180.398 419.781 c 180.801
 420.383 182.699 421.082 184.801 421.484 c 186.801 421.883 189 422.484 189.5
 422.883 c 190.5 423.684 204.301 427.184 211.301 428.383 c 215.801 429.281
 216.102 428.184 212.301 423.184 c 208 417.484 204.801 414.484 200.699 412.082
 c 196.102 409.383 194.699 409.383 189.5 411.781 c h
189.5 411.781 m f
476.102 418.184 m 475.199 419.281 475.398 419.883 476.699 420.984 c 478.301
 422.281 478.398 422.184 477.199 420.684 c 476.199 419.383 476.199 418.984
 477.199 418.582 c 477.898 418.383 478.199 417.883 477.898 417.484 c 477.602
 417.082 476.801 417.484 476.102 418.184 c h
476.102 418.184 m f
582 426.883 m 582 427.383 582.5 427.883 583 427.883 c 583.602 427.883 584
 427.383 584 426.883 c 584 426.281 583.602 425.883 583 425.883 c 582.5 425.883
 582 426.281 582 426.883 c h
582 426.883 m f
577 427.281 m 577 427.484 577.699 427.984 578.602 428.281 c 579.398 428.582
 579.801 428.484 579.5 427.883 c 578.898 426.883 577 426.484 577 427.281
 c h
577 427.281 m f
551.801 431.582 m 552.5 431.883 553.398 431.781 553.699 431.484 c 554.102
 431.184 553.5 430.883 552.398 430.984 c 551.301 430.984 551 431.281 551.801
 431.582 c h
551.801 431.582 m f
484.5 435.883 m 485.5 436.984 486.5 437.883 486.801 437.883 c 487.102 437.883
 486.5 436.984 485.5 435.883 c 484.5 434.781 483.5 433.883 483.199 433.883
 c 482.898 433.883 483.5 434.781 484.5 435.883 c h
484.5 435.883 m f
231.5 450.484 m 228.699 451.984 225.102 454.281 223.398 455.484 c 221.699
 456.781 219.398 457.883 218.301 457.883 c 216.102 457.883 193.898 466.383
 187.5 469.684 c 185.301 470.883 175.801 475.383 166.301 479.781 c 152.801
 486.082 148 488.781 143.801 492.781 c 138.102 498.082 133.699 500.383 122.398
 503.781 c 116.199 505.684 115.301 506.184 115.699 507.883 c 116.398 510.484
 121.602 514.883 124 514.883 c 126.398 514.883 142.801 507.984 157.5 500.781
 c 177.898 490.883 215.398 467.484 222.199 460.484 c 224.199 458.383 227
 456.781 229.102 456.383 c 232.699 455.684 240 450.582 240 448.781 c 240
 447.184 236.602 447.883 231.5 450.484 c h
231.5 450.484 m f
511 453.281 m 511 453.582 511.898 454.281 513 454.883 c 514.102 455.484
 515 455.684 515 455.484 c 515 455.184 514.102 454.484 513 453.883 c 511.898
 453.281 511 453.082 511 453.281 c h
511 453.281 m f
465 460.082 m 465 460.383 465.898 461.582 467 462.883 c 468.102 464.184
 469 464.781 469 464.184 c 469 463.684 468.102 462.383 467 461.383 c 465.898
 460.383 465 459.781 465 460.082 c h
465 460.082 m f
499 461.281 m 499 461.484 499.699 462.184 500.5 462.883 c 501.398 463.582
 502 463.684 502 463.082 c 502 462.582 501.301 461.883 500.5 461.484 c 499.699
 461.184 499 461.082 499 461.281 c h
499 461.281 m f
506.699 465.984 m 507.398 466.684 508.199 466.984 508.5 466.684 c 508.801
 466.383 508.301 465.781 507.301 465.484 c 505.898 464.883 505.801 464.984
 506.699 465.984 c h
506.699 465.984 m f
512.699 468.984 m 513.398 469.684 514.199 469.984 514.5 469.684 c 514.801
 469.383 514.301 468.781 513.301 468.484 c 511.898 467.883 511.801 467.984
 512.699 468.984 c h
512.699 468.984 m f
523 472.883 m 523.801 473.383 525 473.883 525.5 473.883 c 526.102 473.883
 525.801 473.383 525 472.883 c 524.199 472.383 523.102 471.883 522.5 471.883
 c 522 471.883 522.199 472.383 523 472.883 c h
523 472.883 m f
476 498.781 m 476 499.281 476.699 500.281 477.699 500.984 c 479.199 502.281
 479.199 502.184 478.102 500.082 c 476.898 497.781 476 497.281 476 498.781
 c h
476 498.781 m f
481 505.383 m 481 506.184 481.5 506.883 482 506.883 c 482.602 506.883 483
 506.184 483 505.383 c 483 504.582 482.602 503.883 482 503.883 c 481.5 503.883
 481 504.582 481 505.383 c h
481 505.383 m f
52.602 505.582 m 51.5 505.883 48.898 507.184 46.801 508.484 c 44.699 509.781
 42.699 510.883 42.199 510.883 c 40.898 510.883 31.699 517.082 30.301 518.883
 c 28.898 520.684 29.602 523.883 31.801 525.684 c 33.398 526.883 36.398 
526.684 44.5 524.883 c 46.699 524.383 52.699 523.781 57.699 523.484 c 67.699
 523.082 71.5 521.684 79.398 515.582 c 84.602 511.484 84.801 509.383 80.102
 507.582 c 76.398 506.082 56 504.582 52.602 505.582 c h
52.602 505.582 m f
429.602 529.383 m 428.199 530.984 427 533.184 427 534.082 c 427 535.082
 426.5 535.883 425.801 535.883 c 425.102 535.883 422.801 537.781 420.5 540.184
 c 418.301 542.582 414.801 545.281 412.801 546.281 c 410.699 547.184 409
 548.484 409 549.184 c 409 549.883 407.398 552.082 405.5 554.184 c 403.602
 556.281 402 558.383 402 558.984 c 402 559.484 401 559.883 399.801 559.883
 c 398.5 559.883 398 560.184 398.602 560.684 c 399.898 561.484 397.602 567.883
 396 567.883 c 395.398 567.883 395 568.281 395 568.883 c 395 569.383 396.102
 569.883 397.5 569.883 c 398.898 569.883 400 570.383 400 571.082 c 400 571.984
 400.301 571.984 401.199 571.082 c 401.898 570.383 405.199 569.883 409.199
 569.883 c 412.898 569.883 416 569.484 416 568.984 c 416 568.484 417 568.281
 418.199 568.684 c 419.602 568.984 420.102 568.781 419.602 568.082 c 419.301
 567.484 419.898 566.684 421.102 566.383 c 422.301 565.984 425.5 563.883
 428.398 561.781 c 431.199 559.582 435.5 557.082 437.898 556.184 c 442.602
 554.383 452.602 545.383 451 544.383 c 450.398 543.984 450.5 542.484 451.5
 540.281 c 453.102 536.484 452.199 532.281 449.5 531.281 c 448.699 530.883
 448 529.781 448 528.781 c 448 527.582 447.301 526.883 446 526.883 c 444.898
 526.883 444 527.383 444 527.883 c 444 528.984 438.801 528.082 438 526.781
 c 436.801 525.082 432.102 526.582 429.602 529.383 c h
429.602 529.383 m f
271.398 548.984 m 271.801 551.383 273.199 554.781 274.602 556.684 c 276
 558.484 277.699 561.684 278.199 563.684 c 278.801 565.684 279.5 567.582
 279.898 567.883 c 280.699 568.484 285.102 575.582 287 579.184 c 288.398
 581.984 290.602 584.184 301.102 592.883 c 308.602 599.184 312.5 603.582
 315.102 608.582 c 317.301 612.883 321.5 615.883 325.301 615.883 c 326.398
 615.883 328.699 617.383 330.398 619.184 c 334.898 623.883 337.898 624.883
 343.898 623.984 c 351.699 622.781 355.398 623.082 355.801 625.082 c 356
 626.184 355.5 626.883 354.602 626.883 c 353.699 626.883 353 627.582 353
 628.383 c 353 629.184 352.699 629.781 352.301 629.684 c 351.801 629.582
 350.602 629.984 349.5 630.582 c 348.398 631.184 337.301 634.582 324.801
 638.184 c 311.199 642.082 301 645.582 299.102 646.984 c 296.398 648.984
 295.699 649.082 293.602 647.883 c 291.5 646.781 290.699 646.883 287.801
 648.582 c 286 649.582 284.398 651.184 284.199 651.984 c 283.898 653.781
 305.699 664.984 320.898 670.883 c 326.199 672.984 l 333.898 670.281 l 338.102
 668.883 342.699 667.082 344.199 666.281 c 345.699 665.484 349.898 664.082
 353.699 663.184 c 360.5 661.383 l 370.199 641.883 l 375.602 631.184 380
 621.883 380 621.184 c 380 619.281 384.199 616.883 387.398 616.883 c 392.102
 616.883 397.898 619.082 398.5 621.082 c 398.898 622.082 399.5 622.883 400
 622.883 c 400.5 622.883 400.699 623.484 400.398 624.184 c 399.801 625.883
 404.699 631.082 408.301 632.684 c 411.301 633.984 411.102 635.883 407.898
 635.883 c 406.801 635.883 404.801 636.582 403.398 637.582 c 401.199 638.984
 400.898 639.684 401.398 643.082 c 401.898 646.781 401.699 647.184 393.199
 655.684 c 388.398 660.484 383.199 665.883 381.5 667.781 c 379.898 669.684
 375.699 673.484 372.301 676.184 c 368.602 679.082 366 681.883 366 682.883
 c 366 684.684 367.398 685.184 375 686.184 c 377.602 686.582 377.199 692.082
 374.301 695.082 c 371.699 697.781 l 374.301 698.383 l 375.898 698.781 378.199
 698.484 380.102 697.484 c 381.898 696.582 385.602 695.883 388.398 695.883
 c 400.5 695.781 410.301 689.582 416 678.383 c 417.898 674.582 421.898 667.883
 424.801 663.582 c 427.602 659.281 430 655.383 430 654.984 c 430 654.082
 437.898 642.582 439.102 641.883 c 440 641.281 442 636.281 442 634.582 c
 442 633.883 440.801 632.883 439.398 632.184 c 437.301 631.184 436.102 631.383
 431.699 633.281 c 421.801 637.582 410.5 639.082 412.5 635.883 c 413.301
 634.582 418.602 632.383 423.102 631.383 c 425 630.984 429.801 629.082 433.801
 627.281 c 437.801 625.383 443.199 623.281 445.801 622.684 c 448.398 621.984
 451.199 620.984 452 620.281 c 453.898 618.781 461 615.781 461 616.484 c
 461 616.781 461.699 616.281 462.602 615.484 c 463.398 614.582 464.699 613.883
 465.398 613.883 c 466.102 613.883 467.898 612.484 469.5 610.883 c 472.398
 607.883 l 470.301 605.082 l 469.199 603.582 467.398 602.184 466.398 601.984
 c 465.398 601.781 464.102 600.984 463.699 600.184 c 463.199 599.383 462.102
 599.082 461 599.383 c 460 599.684 458.898 599.484 458.602 598.984 c 458.199
 598.383 457.301 598.184 456.5 598.582 c 453.398 599.684 455.301 597.082
 464.301 587.281 c 470 581.184 470.102 579.781 466.5 564.184 c 463.801 552.781
 462.301 548.184 460.898 547.281 c 459.898 546.684 456 550.383 456 551.883
 c 456 552.383 455.398 552.883 454.699 552.883 c 453.898 552.883 451.102
 555.383 448.398 558.484 c 444.301 563.082 441.699 564.883 433 568.984 c
 427.199 571.684 421.801 574.383 421 574.883 c 420.199 575.484 418.5 576.281
 417.199 576.883 c 416 577.383 413.102 578.684 410.699 579.781 c 406.5 581.684
 392.301 585.082 380.102 587.082 c 370.898 588.582 342.898 587.582 335.5
 585.484 c 332.301 584.582 327.102 583.582 324.102 583.281 c 317.301 582.582
 314.602 581.484 303.5 574.582 c 295.301 569.582 281.801 557.184 275.5 548.883
 c 271.801 544.082 270.602 544.082 271.398 548.984 c h
271.398 548.984 m f
0.199 562.883 m 0.199 564.781 0.398 565.582 0.699 564.582 c 0.898 563.684
 0.898 562.082 0.699 561.082 c 0.398 560.184 0.199 560.984 0.199 562.883
 c h
0.199 562.883 m f
352.5 676.984 m 347.398 680.781 347.398 682.281 352.602 682.684 c 356.898
 682.984 358.699 681.883 359 678.383 c 359.602 672.883 358.301 672.582 352.5
 676.984 c h
352.5 676.984 m f
896.602 745.281 m 895.102 748.184 894 750.984 894.102 751.484 c 894.602
 754.383 893.199 755.883 886.398 759.883 c 882.199 762.383 878 765.383 877
 766.582 c 876 767.883 874.898 768.883 874.5 768.883 c 874.102 768.883 873.199
 769.484 872.602 770.184 c 872 770.984 868.801 772.582 865.5 773.781 c 859.699
 775.984 844.699 785.383 841.699 788.684 c 840.898 789.582 839.5 793.484
 838.602 797.383 c 836.699 805.383 831.898 820.184 830.898 820.883 c 830.602
 821.184 829.898 822.484 829.5 823.781 c 829.102 825.184 827.199 828.383
 825.398 831.082 c 822 835.883 l 900 835.883 l 900 787.883 l 900 761.484
 899.801 739.883 899.699 739.883 c 899.5 739.883 898.102 742.281 896.602
 745.281 c h
898.801 785.781 m 899.102 786.582 898.699 786.984 897.898 786.684 c 897.199
 786.484 896.398 785.684 896.199 784.984 c 895.898 784.184 896.301 783.781
 897.102 784.082 c 897.801 784.281 898.602 785.082 898.801 785.781 c h
852.301 819.281 m 854 820.582 854 820.781 852.398 824.281 c 850.301 828.582
 849.5 828.684 846.398 825.383 c 844.102 822.883 844.102 822.684 845.602
 820.383 c 847.398 817.582 849.602 817.281 852.301 819.281 c h
852.301 819.281 m f
Q Q
showpage
%%Trailer
end
%%EOF
